2015/02/11 17:27:07 _ALERT ->Start.lua:11: attempt to index local 't' (a nil value)
2015/02/11 17:44:37 _ALERT ->Start.lua:11: attempt to index local 't' (a nil value)
2015/02/11 17:47:01 _ALERT ->Start.lua:11: attempt to index local 't' (a nil value)
2015/02/11 17:50:11 _ALERT ->Start.lua:11: attempt to index local 't' (a nil value)
2015/02/11 17:50:13 _ALERT ->Start.lua:11: attempt to index local 't' (a nil value)
2015/02/11 17:50:15 _ALERT ->Start.lua:11: attempt to index local 't' (a nil value)
2015/02/11 17:50:18 _ALERT ->Start.lua:11: attempt to index local 't' (a nil value)
